…
$ RER              <dbl> 0.7178551, 0.7178551, 0.7178551, NA, NA, NA, NA, NA, …
$ EqO2             <dbl> 15.10282, 15.10282, 15.10282, NA, NA, NA, NA, NA, NA,…
$ MET              <dbl> 0.5249471, 0.5249471, 0.5249471, NA, NA, NA, NA, NA, …
$ EE               <dbl> 1.273887, 1.273887, 1.273887, NA, NA, NA, NA, NA, NA,…
$ activity         <chr> "1-Lying", "1-Lying", "1-Lying", "1-Lying", "1-Lying"…
$ V.O2             <lgl> NA, NA, NA, NA, NA, NA, NA, NA, NA, NA, NA, NA, NA, N…
$ VO2.kg           <lgl> NA, NA, NA, NA, NA, NA, NA, NA, NA, NA, NA, NA, NA, N…
$ V.CO2            <lgl> NA, NA, NA, NA, NA, NA, NA, NA, NA, NA, NA, NA, NA, N…
$ V.E              <lgl> NA, NA, NA, NA, NA, NA, NA, NA, NA, NA, NA, NA, NA, N…
$ trimmed_activity <chr> "Lying", "Lying", "Lying", "Lying", "Lying", "Lying",…
$ height           <dbl> 164, 164, 164, 164, 164, 164, 164, 164, 164, 164, 164…
$ weight           <dbl> 68, 68, 68, 68, 68, 68, 68, 68, 68, 68, 68, 68, 68, 6…
$ age              <dbl> 30, 30, 30, 30, 30, 30, 30, 30, 30, 30, 30, 30, 30, 3…
$ gender           <chr> "Female", "Female", "Female", "Female", "Female", "Fe…
# A tibble: 22,597,892 × 25
   record_time           x_axis y_axis z_axis participant_id wear_location   VO2
   <dttm>                 <dbl>  <dbl>  <dbl>          <dbl> <chr>         <dbl>
 1 2019-01-07 10:30:01  2.61e+0 -0.681   9.48            108 pock           313.
 2 2019-01-07 10:30:01  1.08e-4  4.61   -9.22            108 hand           313.
 3 2019-01-07 10:30:01  2.03e-2  0.760 -10.4             108 back           313.
 4 2019-01-07 10:30:01  2.61e+0 -0.680   9.45            108 pock            NA 
 5 2019-01-07 10:30:01 -1.86e-3  4.59   -9.21            108 hand            NA 
 6 2019-01-07 10:30:01  1.39e-2  0.755 -10.3             108 back            NA 
 7 2019-01-07 10:30:01  2.57e+0 -0.661   9.25            108 pock            NA 
 8 2019-01-07 10:30:01  1.71e-3  4.47   -9.07            108 hand            NA 
 9 2019-01-07 10:30:01  1.03e-2  0.751 -10.1             108 back            NA 
10 2019-01-07 10:30:01  2.58e+0 -0.651   9.23            108 pock            NA 
# ℹ 22,597,882 more rows
# ℹ 18 more variables: VO2kg <dbl>, VCO2 <dbl>, VE <dbl>, BF <dbl>, RER <dbl>,
#   EqO2 <dbl>, MET <dbl>, EE <dbl>, activity <chr>, V.O2 <lgl>, VO2.kg <lgl>,
#   V.CO2 <lgl>, V.E <lgl>, trimmed_activity <chr>, height <dbl>, weight <dbl>,
#   age <dbl>, gender <chr>
…
